username,firstname,lastname,email
jikla, Jiří, Klapal, jikla@example.com
jakot, Jaroslav, Kotík, jakot@example.com
emsal, Emil, Šálek, emsal@example.com
vahab, Václav, Habrda, vahab@example.com
dahlo, Daniel, Hloušek, dahlo@example.com
jocvr, Josef, Cvrček, jocvr@example.com
frrie, František, Riegger, frrie@example.com
rakot, Radek, Kotlář, rakot@example.com
mikon, Miloš, Konvalinka, mikon@example.com
jahru, Jakub, Hruška, jahru@example.com
romis, Roman, Miškovský, romis@example.com
minaz, Milan, Nazaruk, minaz@example.com
ivluk, Ivan, Lukeš, ivluk@example.com
minov, Michal, Novotný, minov@example.com
janes, Jan, Nesládek, janes@example.com
togre, Tomáš, Grégr, togre@example.com
pehem, Petr, Hemmr, pehem@example.com
zdhol, Zdeněk, Holík, zdhol@example.com
lahli, Ladislav, Hlína, lahli@example.com
pasle, Pavel, Šlejmar, pasle@example.com
frtru, Františka, Trunečková, frtru@example.com
bamay, Bára, Mayerová, bamay@example.com
pepil, Petra, Pilipenko, pepil@example.com
hebil, Helena, Bilčíková, hebil@example.com
ancab, Anna, Cábová, ancab@example.com
bofer, Božena, Ferencová, bofer@example.com
ivpre, Ivana, Preisnerová, ivpre@example.com
japro, Jaroslava, Procházková, japro@example.com
masil, Marie, Šilhanová, masil@example.com
klwog, Klára, Wögebauerová, klwog@example.com
kafry, Karolína, Fryčová, kafry@example.com
jipod, Jiřina, Podroužková, jipod@example.com
ersku, Erika, Škubicová, ersku@example.com
havid, Hana, Vidláková, havid@example.com
javan, Jana, Vaňková, javan@example.com
evrod, Eva, Röderová, evrod@example.com
aldol, Alena, Doležalová, aldol@example.com
lepav, Lenka, Pavlíčková, lepav@example.com
gakrc, Gabriela, Krchová, gakrc@example.com
lukri, Ludmila, Křížová, lukri@example.com
